testb_top_level.vcd
$date
	Mon May 27 10:14:55 2024
$end
$version
	Icarus Verilog
$end
$timescale
	1ps
$end
$scope module testb_top_level $end
$var reg 1 ! clk $end
$var reg 1 " rst $end
$scope module uut $end
$var wire 1 ! clk $end
$var wire 1 " rst $end
$var wire 1 # wb_ruwr_out_wire $end
$var wire 2 $ wb_rudatawrsrc_out_wire [1:0] $end
$var wire 5 % wb_rd_out_wire [4:0] $end
$var wire 32 & wb_pcinc_out_wire [31:0] $end
$var wire 32 ' wb_dmdatard_out_wire [31:0] $end
$var wire 32 ( wb_alures_out_wire [31:0] $end
$var wire 32 ) sumador_out_wire [31:0] $end
$var wire 1 * ruWr_wire $end
$var wire 32 + ruRs2_wire [31:0] $end
$var wire 32 , ruRs1_wire [31:0] $end
$var wire 2 - ruDataWrSrc_wire [1:0] $end
$var wire 5 . rs2_wire [4:0] $end
$var wire 5 / rs1_wire [4:0] $end
$var wire 5 0 rd_wire [4:0] $end
$var wire 7 1 opCode_wire [6:0] $end
$var wire 1 2 nextPcSrc_wire $end
$var wire 32 3 mux_3_1_rurs2_out_wire [31:0] $end
$var wire 32 4 mux_3_1_rurs1_out_wire [31:0] $end
$var wire 1 5 me_ruwr_out_wire $end
$var wire 32 6 me_rurs2_out_wire [31:0] $end
$var wire 2 7 me_rudatawrsrc_out_wire [1:0] $end
$var wire 5 8 me_rd_out_wire [4:0] $end
$var wire 32 9 me_pcinc_out_wire [31:0] $end
$var wire 1 : me_dmwr_out_wire $end
$var wire 3 ; me_dmctrl_out_wire [2:0] $end
$var wire 32 < me_alures_out_wire [31:0] $end
$var wire 32 = instruction_memory_out_wire [31:0] $end
$var wire 25 > inmGen_wire [24:0] $end
$var wire 32 ? immExt_wire [31:0] $end
$var wire 7 @ func7_wire [6:0] $end
$var wire 3 A func3_wire [2:0] $end
$var wire 2 B forwarding_unit_mux_3_1_rurs2_wire [1:0] $end
$var wire 2 C forwarding_unit_mux_3_1_rurs1_wire [1:0] $end
$var wire 32 D fe_pc_out_wire [31:0] $end
$var wire 32 E fe_pc_in_wire [31:0] $end
$var wire 1 F ex_ruwr_out_wire $end
$var wire 32 G ex_rurs2_out_wire [31:0] $end
$var wire 32 H ex_rurs1_out_wire [31:0] $end
$var wire 2 I ex_rudatawrsrc_out_wire [1:0] $end
$var wire 5 J ex_rs2_out_wire [4:0] $end
$var wire 5 K ex_rs1_out_wire [4:0] $end
$var wire 5 L ex_rd_out_wire [4:0] $end
$var wire 32 M ex_pcinc_out_wire [31:0] $end
$var wire 32 N ex_pc_out_wire [31:0] $end
$var wire 32 O ex_immext_out_wire [31:0] $end
$var wire 1 P ex_dmwr_out_wire $end
$var wire 3 Q ex_dmctrl_out_wire [2:0] $end
$var wire 5 R ex_brop_out_wire [4:0] $end
$var wire 4 S ex_aluop_out_wire [3:0] $end
$var wire 1 T ex_alubsrc_out_wire $end
$var wire 1 U ex_aluasrc_out_wire $end
$var wire 1 V enable_hazard_wire $end
$var wire 1 W dmWr_wire $end
$var wire 3 X dmCtrl_wire [2:0] $end
$var wire 32 Y de_pcinc_out_wire [31:0] $end
$var wire 32 Z de_pc_out_wire [31:0] $end
$var wire 32 [ de_inst_out_wire [31:0] $end
$var wire 3 \ de_immSrc_wire [2:0] $end
$var wire 32 ] data_memory_out_wire [31:0] $end
$var wire 32 ^ dataWr_wire [31:0] $end
$var wire 1 _ clr_hazard_wire $end
$var wire 5 ` brOp_wire [4:0] $end
$var wire 32 a alu_out_wire [31:0] $end
$var wire 4 b aluOp_wire [3:0] $end
$var wire 1 c aluBSrc_wire $end
$var wire 1 d aluASrc_wire $end
$var wire 32 e B_mux_2_1_out_wire [31:0] $end
$var wire 32 f A_mux_2_1_out_wire [31:0] $end
$var reg 1 g ex_clr $end
$scope module alu $end
$var wire 4 h aluOp [3:0] $end
$var wire 32 i B [31:0] $end
$var wire 32 j A [31:0] $end
$var reg 32 k aluRes [31:0] $end
$upscope $end
$scope module branch_unit $end
$var wire 32 l ruRs2 [31:0] $end
$var wire 32 m ruRs1 [31:0] $end
$var wire 5 n brOp [4:0] $end
$var reg 1 2 nextPcSrc $end
$upscope $end
$scope module control_unit $end
$var wire 3 o func3 [2:0] $end
$var wire 7 p func7 [6:0] $end
$var wire 7 q opCode [6:0] $end
$var wire 1 r func5 $end
$var reg 1 d aluASrc $end
$var reg 1 c aluBSrc $end
$var reg 4 s aluOp [3:0] $end
$var reg 5 t brOp [4:0] $end
$var reg 3 u dmCtrl [2:0] $end
$var reg 1 W dmWr $end
$var reg 3 v immSrc [2:0] $end
$var reg 2 w ruDataWrSrc [1:0] $end
$var reg 1 * ruWr $end
$upscope $end
$scope module data_memory $end
$var wire 1 : dmWr $end
$var wire 3 x dmCtrl [2:0] $end
$var wire 32 y dataWr [31:0] $end
$var wire 8 z address_lsb [7:0] $end
$var wire 32 { address [31:0] $end
$var reg 32 | dataRd [31:0] $end
$upscope $end
$scope module de_inst $end
$var wire 1 ! clk $end
$var wire 1 2 rst $end
$var wire 1 V enable $end
$var wire 32 } de_inst_in [31:0] $end
$var reg 32 ~ de_inst_out [31:0] $end
$upscope $end
$scope module de_pcinc $end
$var wire 1 ! clk $end
$var wire 1 2 rst $end
$var wire 1 V enable $end
$var wire 32 !" de_pcinc_in [31:0] $end
$var reg 32 "" de_pcinc_out [31:0] $end
$upscope $end
$scope module de_program_counter $end
$var wire 1 ! clk $end
$var wire 1 2 rst $end
$var wire 1 V enable $end
$var wire 32 #" de_pc_in [31:0] $end
$var reg 32 $" de_pc_out [31:0] $end
$upscope $end
$scope module ex_aluasrc $end
$var wire 1 ! clk $end
$var wire 1 d ex_aluasrc_in $end
$var wire 1 g rst $end
$var reg 1 U ex_aluasrc_out $end
$upscope $end
$scope module ex_alubsrc $end
$var wire 1 ! clk $end
$var wire 1 c ex_alubsrc_in $end
$var wire 1 g rst $end
$var reg 1 T ex_alubsrc_out $end
$upscope $end
$scope module ex_aluop $end
$var wire 1 ! clk $end
$var wire 4 %" ex_aluop_in [3:0] $end
$var wire 1 g rst $end
$var reg 4 &" ex_aluop_out [3:0] $end
$upscope $end
$scope module ex_brop $end
$var wire 1 ! clk $end
$var wire 5 '" ex_brop_in [4:0] $end
$var wire 1 g rst $end
$var reg 5 (" ex_brop_out [4:0] $end
$upscope $end
$scope module ex_dmctrl $end
$var wire 1 ! clk $end
$var wire 3 )" ex_dmctrl_in [2:0] $end
$var wire 1 g rst $end
$var reg 3 *" ex_dmctrl_out [2:0] $end
$upscope $end
$scope module ex_dmwr $end
$var wire 1 ! clk $end
$var wire 1 W ex_dmwr_in $end
$var wire 1 g rst $end
$var reg 1 P ex_dmwr_out $end
$upscope $end
$scope module ex_immext $end
$var wire 1 ! clk $end
$var wire 1 g rst $end
$var wire 32 +" ex_immext_in [31:0] $end
$var reg 32 ," ex_immext_out [31:0] $end
$upscope $end
$scope module ex_pcinc $end
$var wire 1 ! clk $end
$var wire 32 -" ex_pcinc_in [31:0] $end
$var wire 1 g rst $end
$var reg 32 ." ex_pcinc_out [31:0] $end
$upscope $end
$scope module ex_program_counter $end
$var wire 1 ! clk $end
$var wire 32 /" ex_pc_in [31:0] $end
$var wire 1 g rst $end
$var reg 32 0" ex_pc_out [31:0] $end
$upscope $end
$scope module ex_rd $end
$var wire 1 ! clk $end
$var wire 5 1" ex_rd_in [4:0] $end
$var wire 1 " rst $end
$var reg 5 2" ex_rd_out [4:0] $end
$upscope $end
$scope module ex_rs1 $end
$var wire 1 ! clk $end
$var wire 5 3" ex_rs1_in [4:0] $end
$var wire 1 " rst $end
$var reg 5 4" ex_rs1_out [4:0] $end
$upscope $end
$scope module ex_rs2 $end
$var wire 1 ! clk $end
$var wire 5 5" ex_rs2_in [4:0] $end
$var wire 1 " rst $end
$var reg 5 6" ex_rs2_out [4:0] $end
$upscope $end
$scope module ex_rudatawrsrc $end
$var wire 1 ! clk $end
$var wire 2 7" ex_rudatawrsrc_in [1:0] $end
$var wire 1 g rst $end
$var reg 2 8" ex_rudatawrsrc_out [1:0] $end
$upscope $end
$scope module ex_rurs1 $end
$var wire 1 ! clk $end
$var wire 1 g rst $end
$var wire 32 9" ex_rurs1_in [31:0] $end
$var reg 32 :" ex_rurs1_out [31:0] $end
$upscope $end
$scope module ex_rurs2 $end
$var wire 1 ! clk $end
$var wire 1 g rst $end
$var wire 32 ;" ex_rurs2_in [31:0] $end
$var reg 32 <" ex_rurs2_out [31:0] $end
$upscope $end
$scope module ex_ruwr $end
$var wire 1 ! clk $end
$var wire 1 * ex_ruwr_in $end
$var wire 1 g rst $end
$var reg 1 F ex_ruwr_out $end
$upscope $end
$scope module fe_program_counter $end
$var wire 1 ! clk $end
$var wire 1 " rst $end
$var wire 32 =" fe_pc_in [31:0] $end
$var wire 1 V enable $end
$var reg 32 >" fe_pc_out [31:0] $end
$upscope $end
$scope module forwarding_unit $end
$var wire 5 ?" ex_rs1 [4:0] $end
$var wire 5 @" ex_rs2 [4:0] $end
$var wire 1 # wb_ruwr $end
$var wire 5 A" wb_rd [4:0] $end
$var wire 1 5 me_ruwr $end
$var wire 5 B" me_rd [4:0] $end
$var reg 2 C" ex_mux_rurs1 [1:0] $end
$var reg 2 D" ex_mux_rurs2 [1:0] $end
$upscope $end
$scope module hazard_unit $end
$var wire 5 E" de_rs1 [4:0] $end
$var wire 5 F" de_rs2 [4:0] $end
$var wire 1 P ex_dmrd $end
$var wire 5 G" ex_rd [4:0] $end
$var reg 1 _ clr $end
$var reg 1 V enable $end
$var reg 1 H" hazard_detected $end
$var reg 1 I" is_equal_rs1 $end
$var reg 1 J" is_equal_rs2 $end
$upscope $end
$scope module immediate_generator $end
$var wire 3 K" immSrc [2:0] $end
$var wire 25 L" inmGen [24:0] $end
$var reg 32 M" immExt [31:0] $end
$upscope $end
$scope module instruction_memory $end
$var wire 32 N" address [31:0] $end
$var reg 32 O" instruction [31:0] $end
$upscope $end
$scope module me_alures $end
$var wire 1 ! clk $end
$var wire 32 P" me_alures_in [31:0] $end
$var wire 1 " rst $end
$var reg 32 Q" me_alures_out [31:0] $end
$upscope $end
$scope module me_dmctrl $end
$var wire 1 ! clk $end
$var wire 3 R" me_dmctrl_in [2:0] $end
$var wire 1 " rst $end
$var reg 3 S" me_dmctrl_out [2:0] $end
$upscope $end
$scope module me_dmwr $end
$var wire 1 ! clk $end
$var wire 1 P me_dmwr_in $end
$var wire 1 " rst $end
$var reg 1 : me_dmwr_out $end
$upscope $end
$scope module me_pcinc $end
$var wire 1 ! clk $end
$var wire 32 T" me_pcinc_in [31:0] $end
$var wire 1 " rst $end
$var reg 32 U" me_pcinc_out [31:0] $end
$upscope $end
$scope module me_rd $end
$var wire 1 ! clk $end
$var wire 5 V" me_rd_in [4:0] $end
$var wire 1 " rst $end
$var reg 5 W" me_rd_out [4:0] $end
$upscope $end
$scope module me_rudatawrsrc $end
$var wire 1 ! clk $end
$var wire 2 X" me_rudatawrsrc_in [1:0] $end
$var wire 1 " rst $end
$var reg 2 Y" me_rudatawrsrc_out [1:0] $end
$upscope $end
$scope module me_rurs2 $end
$var wire 1 ! clk $end
$var wire 32 Z" me_rurs2_in [31:0] $end
$var wire 1 " rst $end
$var reg 32 [" me_rurs2_out [31:0] $end
$upscope $end
$scope module me_ruwr $end
$var wire 1 ! clk $end
$var wire 1 F me_ruwr_in $end
$var wire 1 " rst $end
$var reg 1 5 me_ruwr_out $end
$upscope $end
$scope module mux_2_1_aluASrc $end
$var wire 32 \" B [31:0] $end
$var wire 1 U sel $end
$var wire 32 ]" A [31:0] $end
$var reg 32 ^" Y [31:0] $end
$upscope $end
$scope module mux_2_1_aluBSrc $end
$var wire 32 _" B [31:0] $end
$var wire 1 T sel $end
$var wire 32 `" A [31:0] $end
$var reg 32 a" Y [31:0] $end
$upscope $end
$scope module mux_2_1_nextPcSrc $end
$var wire 32 b" B [31:0] $end
$var wire 1 2 sel $end
$var wire 32 c" A [31:0] $end
$var reg 32 d" Y [31:0] $end
$upscope $end
$scope module mux_3_1_ruDataWrSrc $end
$var wire 2 e" sel [1:0] $end
$var wire 32 f" C [31:0] $end
$var wire 32 g" B [31:0] $end
$var wire 32 h" A [31:0] $end
$var reg 32 i" Y [31:0] $end
$upscope $end
$scope module mux_3_1_rurs1 $end
$var wire 32 j" A [31:0] $end
$var wire 32 k" B [31:0] $end
$var wire 32 l" C [31:0] $end
$var wire 2 m" sel [1:0] $end
$var reg 32 n" Y [31:0] $end
$upscope $end
$scope module mux_3_1_rurs2 $end
$var wire 32 o" A [31:0] $end
$var wire 32 p" B [31:0] $end
$var wire 32 q" C [31:0] $end
$var wire 2 r" sel [1:0] $end
$var reg 32 s" Y [31:0] $end
$upscope $end
$scope module registers_unit $end
$var wire 1 ! clk $end
$var wire 32 t" dataWr [31:0] $end
$var wire 5 u" rs1 [4:0] $end
$var wire 5 v" rs2 [4:0] $end
$var wire 1 # ruWr $end
$var wire 5 w" rd [4:0] $end
$var reg 32 x" ruRs1 [31:0] $end
$var reg 32 y" ruRs2 [31:0] $end
$upscope $end
$scope module sumador $end
$var wire 32 z" pcInstruction [31:0] $end
$var wire 32 {" sumOut [31:0] $end
$upscope $end
$scope module wb_alures $end
$var wire 1 ! clk $end
$var wire 1 " rst $end
$var wire 32 |" wb_alures_in [31:0] $end
$var reg 32 }" wb_alures_out [31:0] $end
$upscope $end
$scope module wb_dmdatard $end
$var wire 1 ! clk $end
$var wire 1 " rst $end
$var wire 32 ~" wb_dmdatard_in [31:0] $end
$var reg 32 !# wb_dmdatard_out [31:0] $end
$upscope $end
$scope module wb_pcinc $end
$var wire 1 ! clk $end
$var wire 1 " rst $end
$var wire 32 "# wb_pcinc_in [31:0] $end
$var reg 32 ## wb_pcinc_out [31:0] $end
$upscope $end
$scope module wb_rd $end
$var wire 1 ! clk $end
$var wire 1 " rst $end
$var wire 5 $# wb_rd_in [4:0] $end
$var reg 5 %# wb_rd_out [4:0] $end
$upscope $end
$scope module wb_rudatawrsrc $end
$var wire 1 ! clk $end
$var wire 1 " rst $end
$var wire 2 &# wb_rudatawrsrc_in [1:0] $end
$var reg 2 '# wb_rudatawrsrc_out [1:0] $end
$upscope $end
$scope module wb_ruwr $end
$var wire 1 ! clk $end
$var wire 1 " rst $end
$var wire 1 5 wb_ruwr_in $end
$var reg 1 # wb_ruwr_out $end
$upscope $end
$upscope $end
$upscope $end
$enddefinitions $end
$comment Show the parameter values. $end
$dumpall
$end
#0
$dumpvars
bx '#
bx &#
bx %#
bx $#
bx ##
bx "#
bx !#
b0 ~"
bx }"
bx |"
bx {"
bx z"
bx y"
bx x"
bx w"
bx v"
bx u"
b0 t"
bx s"
b0 r"
b0 q"
bx p"
bx o"
bx n"
b0 m"
b0 l"
bx k"
bx j"
b0 i"
bx h"
bx g"
bx f"
bx e"
bx d"
bx c"
b0 b"
b0 a"
bx `"
bx _"
b0 ^"
bx ]"
bx \"
bx ["
bx Z"
bx Y"
bx X"
bx W"
bx V"
bx U"
bx T"
bx S"
bx R"
bx Q"
b0 P"
bx O"
bx N"
b0 M"
bx L"
b0 K"
xJ"
xI"
xH"
bx G"
bx F"
bx E"
b0 D"
b0 C"
bx B"
bx A"
bx @"
bx ?"
bx >"
bx ="
bx <"
bx ;"
bx :"
bx 9"
bx 8"
b0 7"
bx 6"
bx 5"
bx 4"
bx 3"
bx 2"
bx 1"
bx 0"
bx /"
bx ."
bx -"
bx ,"
b0 +"
bx *"
b0 )"
bx ("
b0 '"
bx &"
b0 %"
bx $"
bx #"
bx ""
bx !"
bx ~
bx }
b0 |
bx {
bx z
bx y
bx x
b0 w
b0 v
b0 u
b0 t
b0 s
xr
bx q
bx p
bx o
bx n
bx m
bx l
b0 k
b0 j
b0 i
bx h
0g
b0 f
b0 e
0d
0c
b0 b
b0 a
b0 `
0_
b0 ^
b0 ]
b0 \
bx [
bx Z
bx Y
b0 X
0W
1V
xU
xT
bx S
bx R
bx Q
xP
bx O
bx N
bx M
bx L
bx K
bx J
bx I
bx H
bx G
xF
bx E
bx D
b0 C
b0 B
bx A
bx @
b0 ?
bx >
bx =
bx <
bx ;
x:
bx 9
bx 8
bx 7
bx 6
x5
bx 4
bx 3
02
bx 1
bx 0
bx /
bx .
b0 -
bx ,
bx +
0*
bx )
bx (
bx '
bx &
bx %
bx $
x#
1"
0!
$end
#5000
bx a
bx k
bx P"
bx b"
bx f
bx j
bx ^"
bx e
bx i
bx a"
b100 E
b100 ="
b100 d"
b10011000001011000000000000111 =
b10011000001011000000000000111 }
b10011000001011000000000000111 O"
0H"
b0 z
bx ]
bx |
bx ~"
b0 Q
b0 *"
b0 R"
0P
b0 I
b0 8"
b0 X"
0F
b0 O
b0 ,"
b0 _"
0U
0T
b0 R
b0 n
b0 ("
b0 S
b0 h
b0 &"
b100 )
b100 !"
b100 c"
b100 {"
b0 D
b0 #"
b0 >"
b0 N"
b0 z"
b0 K
b0 4"
b0 ?"
b0 J
b0 6"
b0 @"
b0 L
b0 2"
b0 G"
b0 V"
b0 9
b0 U"
b0 "#
b0 <
b0 {
b0 Q"
b0 k"
b0 p"
b0 |"
b0 6
b0 y
b0 ["
b0 8
b0 B"
b0 W"
b0 $#
b0 ;
b0 x
b0 S"
0:
b0 7
b0 Y"
b0 &#
05
b0 '
b0 g"
b0 !#
b0 (
b0 h"
b0 }"
b0 %
b0 A"
b0 w"
b0 %#
b0 &
b0 f"
b0 ##
b0 $
b0 e"
b0 '#
0#
1!
#10000
bx z
b1000 E
b1000 ="
b1000 d"
b10010011000001010110000000000011 =
b10010011000001010110000000000011 }
b10010011000001010110000000000011 O"
bx '
bx g"
bx !#
bx 6
bx y
bx ["
bx <
bx {
bx Q"
bx k"
bx p"
bx |"
bx 9
bx U"
bx "#
bx L
bx 2"
bx G"
bx V"
bx J
bx 6"
bx @"
bx K
bx 4"
bx ?"
b1000 )
b1000 !"
b1000 c"
b1000 {"
b100 D
b100 #"
b100 >"
b100 N"
b100 z"
0!
0"
#15000
b11111111111111111111100100110000 ?
b11111111111111111111100100110000 +"
b11111111111111111111100100110000 M"
0r
b1 -
b1 w
b1 7"
b110 X
b110 u
b110 )"
1c
1*
b1001001100000101011000000 >
b1001001100000101011000000 L"
b0 0
b0 1"
b10000 .
b10000 5"
b10000 F"
b10000 v"
b1010 /
b1010 3"
b1010 E"
b1010 u"
b1001001 @
b1001001 p
b110 A
b110 o
b11 1
b11 q
b1100 E
b1100 ="
b1100 d"
b10011000000011000000111111111 =
b10011000000011000000111111111 }
b10011000000011000000111111111 O"
bx ^
bx i"
bx l"
bx q"
bx t"
b100 Z
b100 $"
b100 -"
b100 /"
b1000 Y
b1000 ""
b10010011000001010110000000000011 [
b10010011000001010110000000000011 ~
b1100 )
b1100 !"
b1100 c"
b1100 {"
b1000 D
b1000 #"
b1000 >"
b1000 N"
b1000 z"
bx 8
bx B"
bx W"
bx $#
bx (
bx h"
bx }"
bx &
bx f"
bx ##
1!
#20000
0!
#25000
b100110000 ?
b100110000 +"
b100110000 M"
b0 -
b0 w
b0 7"
b0 X
b0 u
b0 )"
0c
0*
b1001100000001100000011 >
b1001100000001100000011 L"
b11 0
b11 1"
b11 /
b11 3"
b11 E"
b11 u"
b1001 @
b1001 p
b0 A
b0 o
b1111111 1
b1111111 q
b11111111111111111111100100110000 e
b11111111111111111111100100110000 i
b11111111111111111111100100110000 a"
0J"
0I"
b10000 E
b10000 ="
b10000 d"
b100011001000001000000100000000 =
b100011001000001000000100000000 }
b100011001000001000000100000000 O"
b10011000000011000000111111111 [
b10011000000011000000111111111 ~
b1100 Y
b1100 ""
b1000 Z
b1000 $"
b1000 -"
b1000 /"
b110 Q
b110 *"
b110 R"
b1 I
b1 8"
b1 X"
1F
b100 M
b100 ."
b100 T"
b100 N
b100 0"
b100 \"
b11111111111111111111100100110000 O
b11111111111111111111100100110000 ,"
b11111111111111111111100100110000 _"
1T
bx %
bx A"
bx w"
bx %#
b0 L
b0 2"
b0 G"
b0 V"
b10000 J
b10000 6"
b10000 @"
b1010 K
b1010 4"
b1010 ?"
b10000 )
b10000 !"
b10000 c"
b10000 {"
b1100 D
b1100 #"
b1100 >"
b1100 N"
b1100 z"
1!
#30000
0!
#35000
b1000110010 ?
b1000110010 +"
b1000110010 M"
b10001100100000100000010 >
b10001100100000100000010 L"
b10 0
b10 1"
b10010 .
b10010 5"
b10010 F"
b10010 v"
b1 /
b1 3"
b1 E"
b1 u"
b10001 @
b10001 p
b0 1
b0 q
bx e
bx i
bx a"
b10100 E
b10100 ="
b10100 d"
b100011001000101001000100000000 =
b100011001000101001000100000000 }
b100011001000101001000100000000 O"
0I"
b0 ]
b0 |
b0 ~"
b1100 Z
b1100 $"
b1100 -"
b1100 /"
b10000 Y
b10000 ""
b100011001000001000000100000000 [
b100011001000001000000100000000 ~
0T
b100110000 O
b100110000 ,"
b100110000 _"
b1000 N
b1000 0"
b1000 \"
b1000 M
b1000 ."
b1000 T"
0F
b0 I
b0 8"
b0 X"
b0 Q
b0 *"
b0 R"
b10100 )
b10100 !"
b10100 c"
b10100 {"
b10000 D
b10000 #"
b10000 >"
b10000 N"
b10000 z"
b11 K
b11 4"
b11 ?"
b11 L
b11 2"
b11 G"
b11 V"
b100 9
b100 U"
b100 "#
b0 8
b0 B"
b0 W"
b0 $#
b110 ;
b110 x
b110 S"
b1 7
b1 Y"
b1 &#
15
1!
#40000
0!
#45000
b10001100100010100100010 >
b10001100100010100100010 L"
b101 /
b101 3"
b101 E"
b101 u"
b1 A
b1 o
b0 ^
b0 i"
b0 l"
b0 q"
b0 t"
bx ]
bx |
bx ~"
b11000 E
b11000 ="
b11000 d"
b10011000001000000010100000000 =
b10011000001000000010100000000 }
b10011000001000000010100000000 O"
b100011001000101001000100000000 [
b100011001000101001000100000000 ~
b10100 Y
b10100 ""
b10000 Z
b10000 $"
b10000 -"
b10000 /"
b1100 M
b1100 ."
b1100 T"
b1100 N
b1100 0"
b1100 \"
b1000110010 O
b1000110010 ,"
b1000110010 _"
1#
b1 $
b1 e"
b1 '#
b100 &
b100 f"
b100 ##
b0 %
b0 A"
b0 w"
b0 %#
b0 '
b0 g"
b0 !#
05
b0 7
b0 Y"
b0 &#
b0 ;
b0 x
b0 S"
b11 8
b11 B"
b11 W"
b11 $#
b1000 9
b1000 U"
b1000 "#
b10 L
b10 2"
b10 G"
b10 V"
b10010 J
b10010 6"
b10010 @"
b1 K
b1 4"
b1 ?"
b11000 )
b11000 !"
b11000 c"
b11000 {"
b10100 D
b10100 #"
b10100 >"
b10100 N"
b10100 z"
1!
#50000
b0 +
b0 ;"
b0 y"
b0 ,
b0 9"
b0 x"
0!
#55000
b0 a
b0 k
b0 P"
b0 b"
b100110000 ?
b100110000 +"
b100110000 M"
b0 e
b0 i
b0 a"
b0 f
b0 j
b0 ^"
b1001100000100000001010 >
b1001100000100000001010 L"
b1010 0
b1010 1"
b10000 .
b10000 5"
b10000 F"
b10000 v"
b1000 /
b1000 3"
b1000 E"
b1000 u"
b1001 @
b1001 p
b0 A
b0 o
b0 3
b0 l
b0 `"
b0 s"
b0 4
b0 m
b0 ]"
b0 n"
b11100 E
b11100 ="
b11100 d"
b10010011100001000000010100000000 =
b10010011100001000000010100000000 }
b10010011100001000000010100000000 O"
bx ^
bx i"
bx l"
bx q"
bx t"
b10100 Z
b10100 $"
b10100 -"
b10100 /"
b11000 Y
b11000 ""
b10011000001000000010100000000 [
b10011000001000000010100000000 ~
b0 G
b0 <"
b0 Z"
b0 o"
b0 H
b0 :"
b0 j"
b10000 N
b10000 0"
b10000 \"
b10000 M
b10000 ."
b10000 T"
b11100 )
b11100 !"
b11100 c"
b11100 {"
b11000 D
b11000 #"
b11000 >"
b11000 N"
b11000 z"
b101 K
b101 4"
b101 ?"
b1100 9
b1100 U"
b1100 "#
b10 8
b10 B"
b10 W"
b10 $#
bx '
bx g"
bx !#
b11 %
b11 A"
b11 w"
b11 %#
b1000 &
b1000 f"
b1000 ##
b0 $
b0 e"
b0 '#
0#
1!
#60000
bx +
bx ;"
bx y"
bx ,
bx 9"
bx x"
0!
#65000
b11111111111111111111100100111000 ?
b11111111111111111111100100111000 +"
b11111111111111111111100100111000 M"
bx a
bx k
bx P"
bx b"
b1001001110000100000001010 >
b1001001110000100000001010 L"
b11000 .
b11000 5"
b11000 F"
b11000 v"
b1001001 @
b1001001 p
bx f
bx j
bx ^"
bx e
bx i
bx a"
b0 z
bx 4
bx m
bx ]"
bx n"
bx 3
bx l
bx `"
bx s"
b100000 E
b100000 ="
b100000 d"
b1100011000011101001010000000000 =
b1100011000011101001010000000000 }
b1100011000011101001010000000000 O"
b10010011100001000000010100000000 [
b10010011100001000000010100000000 ~
b11100 Y
b11100 ""
b11000 Z
b11000 $"
b11000 -"
b11000 /"
b10100 M
b10100 ."
b10100 T"
b10100 N
b10100 0"
b10100 \"
bx H
bx :"
bx j"
bx G
bx <"
bx Z"
bx o"
b100110000 O
b100110000 ,"
b100110000 _"
b1100 &
b1100 f"
b1100 ##
b10 %
b10 A"
b10 w"
b10 %#
b0 6
b0 y
b0 ["
b0 <
b0 {
b0 Q"
b0 k"
b0 p"
b0 |"
b10000 9
b10000 U"
b10000 "#
b1010 L
b1010 2"
b1010 G"
b1010 V"
b10000 J
b10000 6"
b10000 @"
b1000 K
b1000 4"
b1000 ?"
b100000 )
b100000 !"
b100000 c"
b100000 {"
b11100 D
b11100 #"
b11100 >"
b11100 N"
b11100 z"
1!
#70000
0!
#75000
b11000110000 ?
b11000110000 +"
b11000110000 M"
1r
b110001100001110100101000 >
b110001100001110100101000 L"
b1000 0
b1000 1"
b10000 .
b10000 5"
b10000 F"
b10000 v"
b11101 /
b11101 3"
b11101 E"
b11101 u"
b110001 @
b110001 p
b1 A
b1 o
b100100 E
b100100 ="
b100100 d"
b1100011010001101001010000000000 =
b1100011010001101001010000000000 }
b1100011010001101001010000000000 O"
bx z
b0 ^
b0 i"
b0 l"
b0 q"
b0 t"
b11100 Z
b11100 $"
b11100 -"
b11100 /"
b100000 Y
b100000 ""
b1100011000011101001010000000000 [
b1100011000011101001010000000000 ~
b11111111111111111111100100111000 O
b11111111111111111111100100111000 ,"
b11111111111111111111100100111000 _"
b11000 N
b11000 0"
b11000 \"
b11000 M
b11000 ."
b11000 T"
b100100 )
b100100 !"
b100100 c"
b100100 {"
b100000 D
b100000 #"
b100000 >"
b100000 N"
b100000 z"
b11000 J
b11000 6"
b11000 @"
b10100 9
b10100 U"
b10100 "#
bx <
bx {
bx Q"
bx k"
bx p"
bx |"
bx 6
bx y
bx ["
b1010 8
b1010 B"
b1010 W"
b1010 $#
b0 (
b0 h"
b0 }"
b10000 &
b10000 f"
b10000 ##
1!
#80000
0!
#85000
b11000110100 ?
b11000110100 +"
b11000110100 M"
b110001101000110100101000 >
b110001101000110100101000 L"
b10100 .
b10100 5"
b10100 F"
b10100 v"
b1101 /
b1101 3"
b1101 E"
b1101 u"
bx ^
bx i"
bx l"
bx q"
bx t"
b101000 E
b101000 ="
b101000 d"
b110011000001001001010001000000 =
b110011000001001001010001000000 }
b110011000001001001010001000000 O"
b1100011010001101001010000000000 [
b1100011010001101001010000000000 ~
b100100 Y
b100100 ""
b100000 Z
b100000 $"
b100000 -"
b100000 /"
b11100 M
b11100 ."
b11100 T"
b11100 N
b11100 0"
b11100 \"
b11000110000 O
b11000110000 ,"
b11000110000 _"
b10100 &
b10100 f"
b10100 ##
b1010 %
b1010 A"
b1010 w"
b1010 %#
bx (
bx h"
bx }"
b11000 9
b11000 U"
b11000 "#
b1000 L
b1000 2"
b1000 G"
b1000 V"
b10000 J
b10000 6"
b10000 @"
b11101 K
b11101 4"
b11101 ?"
b101000 )
b101000 !"
b101000 c"
b101000 {"
b100100 D
b100100 #"
b100100 >"
b100100 N"
b100100 z"
1!
#90000
0!
#95000
b1100110000 ?
b1100110000 +"
b1100110000 M"
0r
b11001100000100100101000 >
b11001100000100100101000 L"
b10000 .
b10000 5"
b10000 F"
b10000 v"
b1001 /
b1001 3"
b1001 E"
b1001 u"
b11001 @
b11001 p
b1000000 1
b1000000 q
b101100 E
b101100 ="
b101100 d"
b1100011000001100000000000000000 =
b1100011000001100000000000000000 }
b1100011000001100000000000000000 O"
b100100 Z
b100100 $"
b100100 -"
b100100 /"
b101000 Y
b101000 ""
b110011000001001001010001000000 [
b110011000001001001010001000000 ~
b11000110100 O
b11000110100 ,"
b11000110100 _"
b100000 N
b100000 0"
b100000 \"
b100000 M
b100000 ."
b100000 T"
b101100 )
b101100 !"
b101100 c"
b101100 {"
b101000 D
b101000 #"
b101000 >"
b101000 N"
b101000 z"
b1101 K
b1101 4"
b1101 ?"
b10100 J
b10100 6"
b10100 @"
b11100 9
b11100 U"
b11100 "#
b1000 8
b1000 B"
b1000 W"
b1000 $#
b11000 &
b11000 f"
b11000 ##
1!
#100000
0!
